BCD_7seg/simulation/qsim/bcd_7seg.msim.vcd
$comment
	File created using the following command:
		vcd file bcd_7seg.msim.vcd -direction
$end
$date
	Wed Mar 11 11:41:43 2020
$end
$version
	ModelSim Version 10.1d
$end
$timescale
	1ps
$end
$scope module bcd_7seg_vlg_vec_tst $end
$var reg 4 ! ENTRADAS [3:0] $end
$var wire 1 " SAIDAS [6] $end
$var wire 1 # SAIDAS [5] $end
$var wire 1 $ SAIDAS [4] $end
$var wire 1 % SAIDAS [3] $end
$var wire 1 & SAIDAS [2] $end
$var wire 1 ' SAIDAS [1] $end
$var wire 1 ( SAIDAS [0] $end
$var wire 1 ) sampler $end
$scope module i1 $end
$var wire 1 * gnd $end
$var wire 1 + vcc $end
$var wire 1 , unknown $end
$var tri1 1 - devclrn $end
$var tri1 1 . devpor $end
$var tri1 1 / devoe $end
$var wire 1 0 SAIDAS~0_combout $end
$var wire 1 1 SAIDAS~1_combout $end
$var wire 1 2 SAIDAS~2_combout $end
$var wire 1 3 SAIDAS~3_combout $end
$var wire 1 4 SAIDAS~4_combout $end
$var wire 1 5 SAIDAS~5_combout $end
$var wire 1 6 SAIDAS~6_combout $end
$var wire 1 7 ENTRADAS~combout [3] $end
$var wire 1 8 ENTRADAS~combout [2] $end
$var wire 1 9 ENTRADAS~combout [1] $end
$var wire 1 : ENTRADAS~combout [0] $end
$upscope $end
$upscope $end
$enddefinitions $end
#0
$dumpvars
b0 !
0(
0'
0&
0%
0$
0#
1"
x)
0*
1+
x,
1-
1.
1/
10
01
02
03
04
05
16
0:
09
08
07
$end
#10000
b1 !
1:
0)
06
14
0"
1$
#20000
b11 !
b10 !
0:
19
1)
13
00
1%
1(
#30000
b11 !
1:
0)
04
03
10
0$
0%
0(
#40000
b111 !
b101 !
b100 !
0:
09
18
1)
15
12
1#
1&
#50000
b101 !
1:
0)
05
02
0#
0&
#60000
b111 !
b110 !
0:
19
1)
#70000
b111 !
1:
0)
#80000
b1111 !
b1011 !
b1001 !
b1000 !
0:
09
08
17
1)
16
15
14
13
00
1"
1#
1$
1%
1(
#90000
b1001 !
1:
0)
06
05
04
03
10
0"
0#
0$
0%
0(
#100000
b1011 !
b1010 !
0:
19
1)
14
11
1$
1'
#110000
b1011 !
1:
0)
04
01
0$
0'
#120000
b1111 !
b1101 !
b1100 !
0:
09
18
1)
15
14
1#
1$
#130000
b1101 !
1:
0)
05
04
0#
0$
#140000
b1111 !
b1110 !
0:
19
1)
16
15
13
11
1"
1#
1%
1'
#150000
b1111 !
1:
0)
06
05
03
01
0"
0#
0%
0'
#160000
b111 !
b11 !
b1 !
b0 !
0:
09
08
07
1)
16
1"
#170000
b1 !
1:
0)
06
14
0"
1$
#180000
b11 !
b10 !
0:
19
1)
13
00
1%
1(
#190000
b11 !
1:
0)
04
03
10
0$
0%
0(
#200000
b111 !
b101 !
b100 !
0:
09
18
1)
15
12
1#
1&
#210000
b101 !
1:
0)
05
02
0#
0&
#220000
b111 !
b110 !
0:
19
1)
#230000
b111 !
1:
0)
#240000
b1111 !
b1011 !
b1001 !
b1000 !
0:
09
08
17
1)
16
15
14
13
00
1"
1#
1$
1%
1(
#250000
b1001 !
1:
0)
06
05
04
03
10
0"
0#
0$
0%
0(
#260000
b1011 !
b1010 !
0:
19
1)
14
11
1$
1'
#270000
b1011 !
1:
0)
04
01
0$
0'
#280000
b1111 !
b1101 !
b1100 !
0:
09
18
1)
15
14
1#
1$
#290000
b1101 !
1:
0)
05
04
0#
0$
#300000
b1111 !
b1110 !
0:
19
1)
16
15
13
11
1"
1#
1%
1'
#310000
b1111 !
1:
0)
06
05
03
01
0"
0#
0%
0'
#320000
b111 !
b11 !
b1 !
b0 !
0:
09
08
07
1)
16
1"
#330000
b1 !
1:
0)
06
14
0"
1$
#340000
b11 !
b10 !
0:
19
1)
13
00
1%
1(
#350000
b11 !
1:
0)
04
03
10
0$
0%
0(
#360000
b111 !
b101 !
b100 !
0:
09
18
1)
15
12
1#
1&
#370000
b101 !
1:
0)
05
02
0#
0&
#380000
b111 !
b110 !
0:
19
1)
#390000
b111 !
1:
0)
#400000
b1111 !
b1011 !
b1001 !
b1000 !
0:
09
08
17
1)
16
15
14
13
00
1"
1#
1$
1%
1(
#410000
b1001 !
1:
0)
06
05
04
03
10
0"
0#
0$
0%
0(
#420000
b1011 !
b1010 !
0:
19
1)
14
11
1$
1'
#430000
b1011 !
1:
0)
04
01
0$
0'
#440000
b1111 !
b1101 !
b1100 !
0:
09
18
1)
15
14
1#
1$
#450000
b1101 !
1:
0)
05
04
0#
0$
#460000
b1111 !
b1110 !
0:
19
1)
16
15
13
11
1"
1#
1%
1'
#470000
b1111 !
1:
0)
06
05
03
01
0"
0#
0%
0'
#480000
b111 !
b11 !
b1 !
b0 !
0:
09
08
07
1)
16
1"
#490000
b1 !
1:
0)
06
14
0"
1$
#500000
b11 !
b10 !
0:
19
1)
13
00
1%
1(
#510000
b11 !
1:
0)
04
03
10
0$
0%
0(
#520000
b111 !
b101 !
b100 !
0:
09
18
1)
15
12
1#
1&
#530000
b101 !
1:
0)
05
02
0#
0&
#540000
b111 !
b110 !
0:
19
1)
#550000
b111 !
1:
0)
#560000
b1111 !
b1011 !
b1001 !
b1000 !
0:
09
08
17
1)
16
15
14
13
00
1"
1#
1$
1%
1(
#570000
b1001 !
1:
0)
06
05
04
03
10
0"
0#
0$
0%
0(
#580000
b1011 !
b1010 !
0:
19
1)
14
11
1$
1'
#590000
b1011 !
1:
0)
04
01
0$
0'
#600000
b1111 !
b1101 !
b1100 !
0:
09
18
1)
15
14
1#
1$
#610000
b1101 !
1:
0)
05
04
0#
0$
#620000
b1111 !
b1110 !
0:
19
1)
16
15
13
11
1"
1#
1%
1'
#630000
b1111 !
1:
0)
06
05
03
01
0"
0#
0%
0'
#640000
b111 !
b11 !
b1 !
b0 !
0:
09
08
07
1)
16
1"
#650000
b1 !
1:
0)
06
14
0"
1$
#660000
b11 !
b10 !
0:
19
1)
13
00
1%
1(
#670000
b11 !
1:
0)
04
03
10
0$
0%
0(
#680000
b111 !
b101 !
b100 !
0:
09
18
1)
15
12
1#
1&
#690000
b101 !
1:
0)
05
02
0#
0&
#700000
b111 !
b110 !
0:
19
1)
#710000
b111 !
1:
0)
#720000
b1111 !
b1011 !
b1001 !
b1000 !
0:
09
08
17
1)
16
15
14
13
00
1"
1#
1$
1%
1(
#730000
b1001 !
1:
0)
06
05
04
03
10
0"
0#
0$
0%
0(
#740000
b1011 !
b1010 !
0:
19
1)
14
11
1$
1'
#750000
b1011 !
1:
0)
04
01
0$
0'
#760000
b1111 !
b1101 !
b1100 !
0:
09
18
1)
15
14
1#
1$
#770000
b1101 !
1:
0)
05
04
0#
0$
#780000
b1111 !
b1110 !
0:
19
1)
16
15
13
11
1"
1#
1%
1'
#790000
b1111 !
1:
0)
06
05
03
01
0"
0#
0%
0'
#800000
b111 !
b11 !
b1 !
b0 !
0:
09
08
07
1)
16
1"
#810000
b1 !
1:
0)
06
14
0"
1$
#820000
b11 !
b10 !
0:
19
1)
13
00
1%
1(
#830000
b11 !
1:
0)
04
03
10
0$
0%
0(
#840000
b111 !
b101 !
b100 !
0:
09
18
1)
15
12
1#
1&
#850000
b101 !
1:
0)
05
02
0#
0&
#860000
b111 !
b110 !
0:
19
1)
#870000
b111 !
1:
0)
#880000
b1111 !
b1011 !
b1001 !
b1000 !
0:
09
08
17
1)
16
15
14
13
00
1"
1#
1$
1%
1(
#890000
b1001 !
1:
0)
06
05
04
03
10
0"
0#
0$
0%
0(
#900000
b1011 !
b1010 !
0:
19
1)
14
11
1$
1'
#910000
b1011 !
1:
0)
04
01
0$
0'
#920000
b1111 !
b1101 !
b1100 !
0:
09
18
1)
15
14
1#
1$
#930000
b1101 !
1:
0)
05
04
0#
0$
#940000
b1111 !
b1110 !
0:
19
1)
16
15
13
11
1"
1#
1%
1'
#950000
b1111 !
1:
0)
06
05
03
01
0"
0#
0%
0'
#960000
b111 !
b11 !
b1 !
b0 !
0:
09
08
07
1)
16
1"
#970000
b1 !
1:
0)
06
14
0"
1$
#980000
b11 !
b10 !
0:
19
1)
13
00
1%
1(
#990000
b11 !
1:
0)
04
03
10
0$
0%
0(
