BCD_7seg/simulation/qsim/bcd_7seg.msim.vcd
$comment
	File created using the following command:
		vcd file bcd_7seg.msim.vcd -direction
$end
$date
	Tue Mar 17 07:32:50 2020
$end
$version
	ModelSim Version 10.1d
$end
$timescale
	1ps
$end
$scope module bcd_7seg_vlg_vec_tst $end
$var reg 1 ! A $end
$var reg 1 " B $end
$var reg 1 # C $end
$var reg 1 $ D $end
$var wire 1 % SAIDAS [0] $end
$var wire 1 & SAIDAS [1] $end
$var wire 1 ' SAIDAS [2] $end
$var wire 1 ( SAIDAS [3] $end
$var wire 1 ) SAIDAS [4] $end
$var wire 1 * SAIDAS [5] $end
$var wire 1 + SAIDAS [6] $end
$var wire 1 , sampler $end
$scope module i1 $end
$var wire 1 - gnd $end
$var wire 1 . vcc $end
$var wire 1 / unknown $end
$var tri1 1 0 devclrn $end
$var tri1 1 1 devpor $end
$var tri1 1 2 devoe $end
$var wire 1 3 D~combout $end
$var wire 1 4 C~combout $end
$var wire 1 5 B~combout $end
$var wire 1 6 A~combout $end
$var wire 1 7 SAIDAS~0_combout $end
$var wire 1 8 SAIDAS~1_combout $end
$var wire 1 9 SAIDAS~2_combout $end
$var wire 1 : SAIDAS~3_combout $end
$var wire 1 ; SAIDAS~4_combout $end
$var wire 1 < SAIDAS~5_combout $end
$var wire 1 = SAIDAS~6_combout $end
$upscope $end
$upscope $end
$enddefinitions $end
#0
$dumpvars
0!
0"
0#
0$
1+
0*
0)
0(
0'
0&
0%
x,
0-
1.
x/
10
11
12
03
04
05
06
17
08
09
0:
0;
0<
1=
$end
#5000
1$
13
0,
0=
1:
19
18
1(
1)
1*
1%
#10000
1#
0$
14
03
1,
1=
1;
0:
09
07
1'
0(
0)
0+
0%
#15000
1$
13
0,
0;
19
0'
1)
#20000
1"
0#
0$
15
04
03
1,
0=
1:
08
1(
0*
1%
#25000
1$
13
0,
1=
1<
0:
1&
0(
0%
#30000
1#
0$
14
03
1,
09
0)
#35000
1$
13
0,
0<
1:
19
18
17
0&
1(
1)
1*
1+
#40000
1!
0"
0#
0$
16
05
04
03
1,
0:
08
07
09
0(
0*
0+
0)
#45000
1$
13
0,
19
1)
#50000
1#
0$
14
03
1,
1;
09
18
1'
0)
1*
#55000
1$
13
0,
0;
19
0'
1)
#60000
1"
0#
0$
15
04
03
1,
0=
1:
08
1(
0*
1%
#65000
1$
13
0,
1=
1<
0:
1&
0(
0%
#70000
1#
0$
14
03
1,
09
0)
#75000
1$
13
0,
0<
1:
19
18
17
0&
1(
1)
1*
1+
#80000
0!
0"
0#
0$
06
05
04
03
1,
0:
08
09
0(
0*
0)
#85000
1$
13
0,
0=
1:
19
18
1(
1)
1*
1%
#90000
1#
0$
14
03
1,
1=
1;
0:
09
07
1'
0(
0)
0+
0%
#95000
1$
13
0,
0;
19
0'
1)
#100000
1"
0#
0$
15
04
03
1,
0=
1:
08
1(
0*
1%
#105000
1$
13
0,
1=
1<
0:
1&
0(
0%
#110000
1#
0$
14
03
1,
09
0)
#115000
1$
13
0,
0<
1:
19
18
17
0&
1(
1)
1*
1+
#120000
1!
0"
0#
0$
16
05
04
03
1,
0:
08
07
09
0(
0*
0+
0)
#125000
1$
13
0,
19
1)
#130000
1#
0$
14
03
1,
1;
09
18
1'
0)
1*
#135000
1$
13
0,
0;
19
0'
1)
#140000
1"
0#
0$
15
04
03
1,
0=
1:
08
1(
0*
1%
#145000
1$
13
0,
1=
1<
0:
1&
0(
0%
#150000
1#
0$
14
03
1,
09
0)
#155000
1$
13
0,
0<
1:
19
18
17
0&
1(
1)
1*
1+
#160000
0!
0"
0#
0$
06
05
04
03
1,
0:
08
09
0(
0*
0)
#165000
1$
13
0,
0=
1:
19
18
1(
1)
1*
1%
#170000
1#
0$
14
03
1,
1=
1;
0:
09
07
1'
0(
0)
0+
0%
#175000
1$
13
0,
0;
19
0'
1)
#180000
1"
0#
0$
15
04
03
1,
0=
1:
08
1(
0*
1%
#185000
1$
13
0,
1=
1<
0:
1&
0(
0%
#190000
1#
0$
14
03
1,
09
0)
#195000
1$
13
0,
0<
1:
19
18
17
0&
1(
1)
1*
1+
#200000
1!
0"
0#
0$
16
05
04
03
1,
0:
08
07
09
0(
0*
0+
0)
#205000
1$
13
0,
19
1)
#210000
1#
0$
14
03
1,
1;
09
18
1'
0)
1*
#215000
1$
13
0,
0;
19
0'
1)
#220000
1"
0#
0$
15
04
03
1,
0=
1:
08
1(
0*
1%
#225000
1$
13
0,
1=
1<
0:
1&
0(
0%
#230000
1#
0$
14
03
1,
09
0)
#235000
1$
13
0,
0<
1:
19
18
17
0&
1(
1)
1*
1+
#240000
0!
0"
0#
0$
06
05
04
03
1,
0:
08
09
0(
0*
0)
#245000
1$
13
0,
0=
1:
19
18
1(
1)
1*
1%
#250000
1#
0$
14
03
1,
1=
1;
0:
09
07
1'
0(
0)
0+
0%
#255000
1$
13
0,
0;
19
0'
1)
#260000
1"
0#
0$
15
04
03
1,
0=
1:
08
1(
0*
1%
#265000
1$
13
0,
1=
1<
0:
1&
0(
0%
#270000
1#
0$
14
03
1,
09
0)
#275000
1$
13
0,
0<
1:
19
18
17
0&
1(
1)
1*
1+
#280000
1!
0"
0#
0$
16
05
04
03
1,
0:
08
07
09
0(
0*
0+
0)
#285000
1$
13
0,
19
1)
#290000
1#
0$
14
03
1,
1;
09
18
1'
0)
1*
#295000
1$
13
0,
0;
19
0'
1)
#300000
1"
0#
0$
15
04
03
1,
0=
1:
08
1(
0*
1%
#305000
1$
13
0,
1=
1<
0:
1&
0(
0%
#310000
1#
0$
14
03
1,
09
0)
#315000
1$
13
0,
0<
1:
19
18
17
0&
1(
1)
1*
1+
#320000
0!
0"
0#
0$
06
05
04
03
1,
0:
08
09
0(
0*
0)
#325000
1$
13
0,
0=
1:
19
18
1(
1)
1*
1%
#330000
1#
0$
14
03
1,
1=
1;
0:
09
07
1'
0(
0)
0+
0%
#335000
1$
13
0,
0;
19
0'
1)
#340000
1"
0#
0$
15
04
03
1,
0=
1:
08
1(
0*
1%
#345000
1$
13
0,
1=
1<
0:
1&
0(
0%
#350000
1#
0$
14
03
1,
09
0)
#355000
1$
13
0,
0<
1:
19
18
17
0&
1(
1)
1*
1+
#360000
1!
0"
0#
0$
16
05
04
03
1,
0:
08
07
09
0(
0*
0+
0)
#365000
1$
13
0,
19
1)
#370000
1#
0$
14
03
1,
1;
09
18
1'
0)
1*
#375000
1$
13
0,
0;
19
0'
1)
#380000
1"
0#
0$
15
04
03
1,
0=
1:
08
1(
0*
1%
#385000
1$
13
0,
1=
1<
0:
1&
0(
0%
#390000
1#
0$
14
03
1,
09
0)
#395000
1$
13
0,
0<
1:
19
18
17
0&
1(
1)
1*
1+
#400000
0!
0"
0#
0$
06
05
04
03
1,
0:
08
09
0(
0*
0)
#405000
1$
13
0,
0=
1:
19
18
1(
1)
1*
1%
#410000
1#
0$
14
03
1,
1=
1;
0:
09
07
1'
0(
0)
0+
0%
#415000
1$
13
0,
0;
19
0'
1)
#420000
1"
0#
0$
15
04
03
1,
0=
1:
08
1(
0*
1%
#425000
1$
13
0,
1=
1<
0:
1&
0(
0%
#430000
1#
0$
14
03
1,
09
0)
#435000
1$
13
0,
0<
1:
19
18
17
0&
1(
1)
1*
1+
#440000
1!
0"
0#
0$
16
05
04
03
1,
0:
08
07
09
0(
0*
0+
0)
#445000
1$
13
0,
19
1)
#450000
1#
0$
14
03
1,
1;
09
18
1'
0)
1*
#455000
1$
13
0,
0;
19
0'
1)
#460000
1"
0#
0$
15
04
03
1,
0=
1:
08
1(
0*
1%
#465000
1$
13
0,
1=
1<
0:
1&
0(
0%
#470000
1#
0$
14
03
1,
09
0)
#475000
1$
13
0,
0<
1:
19
18
17
0&
1(
1)
1*
1+
#480000
0!
0"
0#
0$
06
05
04
03
1,
0:
08
09
0(
0*
0)
#485000
1$
13
0,
0=
1:
19
18
1(
1)
1*
1%
#490000
1#
0$
14
03
1,
1=
1;
0:
09
07
1'
0(
0)
0+
0%
#495000
1$
13
0,
0;
19
0'
1)
#500000
1"
0#
0$
15
04
03
1,
0=
1:
08
1(
0*
1%
#505000
1$
13
0,
1=
1<
0:
1&
0(
0%
#510000
1#
0$
14
03
1,
09
0)
#515000
1$
13
0,
0<
1:
19
18
17
0&
1(
1)
1*
1+
#520000
1!
0"
0#
0$
16
05
04
03
1,
0:
08
07
09
0(
0*
0+
0)
#525000
1$
13
0,
19
1)
#530000
1#
0$
14
03
1,
1;
09
18
1'
0)
1*
#535000
1$
13
0,
0;
19
0'
1)
#540000
1"
0#
0$
15
04
03
1,
0=
1:
08
1(
0*
1%
#545000
1$
13
0,
1=
1<
0:
1&
0(
0%
#550000
1#
0$
14
03
1,
09
0)
#555000
1$
13
0,
0<
1:
19
18
17
0&
1(
1)
1*
1+
#560000
0!
0"
0#
0$
06
05
04
03
1,
0:
08
09
0(
0*
0)
#565000
1$
13
0,
0=
1:
19
18
1(
1)
1*
1%
#570000
1#
0$
14
03
1,
1=
1;
0:
09
07
1'
0(
0)
0+
0%
#575000
1$
13
0,
0;
19
0'
1)
#580000
1"
0#
0$
15
04
03
1,
0=
1:
08
1(
0*
1%
#585000
1$
13
0,
1=
1<
0:
1&
0(
0%
#590000
1#
0$
14
03
1,
09
0)
#595000
1$
13
0,
0<
1:
19
18
17
0&
1(
1)
1*
1+
#600000
1!
0"
0#
0$
16
05
04
03
1,
0:
08
07
09
0(
0*
0+
0)
#605000
1$
13
0,
19
1)
#610000
1#
0$
14
03
1,
1;
09
18
1'
0)
1*
#615000
1$
13
0,
0;
19
0'
1)
#620000
1"
0#
0$
15
04
03
1,
0=
1:
08
1(
0*
1%
#625000
1$
13
0,
1=
1<
0:
1&
0(
0%
#630000
1#
0$
14
03
1,
09
0)
#635000
1$
13
0,
0<
1:
19
18
17
0&
1(
1)
1*
1+
#640000
0!
0"
0#
0$
06
05
04
03
1,
0:
08
09
0(
0*
0)
#645000
1$
13
0,
0=
1:
19
18
1(
1)
1*
1%
#650000
1#
0$
14
03
1,
1=
1;
0:
09
07
1'
0(
0)
0+
0%
#655000
1$
13
0,
0;
19
0'
1)
#660000
1"
0#
0$
15
04
03
1,
0=
1:
08
1(
0*
1%
#665000
1$
13
0,
1=
1<
0:
1&
0(
0%
#670000
1#
0$
14
03
1,
09
0)
#675000
1$
13
0,
0<
1:
19
18
17
0&
1(
1)
1*
1+
#680000
1!
0"
0#
0$
16
05
04
03
1,
0:
08
07
09
0(
0*
0+
0)
#685000
1$
13
0,
19
1)
#690000
1#
0$
14
03
1,
1;
09
18
1'
0)
1*
#695000
1$
13
0,
0;
19
0'
1)
#700000
1"
0#
0$
15
04
03
1,
0=
1:
08
1(
0*
1%
#705000
1$
13
0,
1=
1<
0:
1&
0(
0%
#710000
1#
0$
14
03
1,
09
0)
#715000
1$
13
0,
0<
1:
19
18
17
0&
1(
1)
1*
1+
#720000
0!
0"
0#
0$
06
05
04
03
1,
0:
08
09
0(
0*
0)
#725000
1$
13
0,
0=
1:
19
18
1(
1)
1*
1%
#730000
1#
0$
14
03
1,
1=
1;
0:
09
07
1'
0(
0)
0+
0%
#735000
1$
13
0,
0;
19
0'
1)
#740000
1"
0#
0$
15
04
03
1,
0=
1:
08
1(
0*
1%
#745000
1$
13
0,
1=
1<
0:
1&
0(
0%
#750000
1#
0$
14
03
1,
09
0)
#755000
1$
13
0,
0<
1:
19
18
17
0&
1(
1)
1*
1+
#760000
1!
0"
0#
0$
16
05
04
03
1,
0:
08
07
09
0(
0*
0+
0)
#765000
1$
13
0,
19
1)
#770000
1#
0$
14
03
1,
1;
09
18
1'
0)
1*
#775000
1$
13
0,
0;
19
0'
1)
#780000
1"
0#
0$
15
04
03
1,
0=
1:
08
1(
0*
1%
#785000
1$
13
0,
1=
1<
0:
1&
0(
0%
#790000
1#
0$
14
03
1,
09
0)
#795000
1$
13
0,
0<
1:
19
18
17
0&
1(
1)
1*
1+
#800000
0!
0"
0#
0$
06
05
04
03
1,
0:
08
09
0(
0*
0)
#805000
1$
13
0,
0=
1:
19
18
1(
1)
1*
1%
#810000
1#
0$
14
03
1,
1=
1;
0:
09
07
1'
0(
0)
0+
0%
#815000
1$
13
0,
0;
19
0'
1)
#820000
1"
0#
0$
15
04
03
1,
0=
1:
08
1(
0*
1%
#825000
1$
13
0,
1=
1<
0:
1&
0(
0%
#830000
1#
0$
14
03
1,
09
0)
#835000
1$
13
0,
0<
1:
19
18
17
0&
1(
1)
1*
1+
#840000
1!
0"
0#
0$
16
05
04
03
1,
0:
08
07
09
0(
0*
0+
0)
#845000
1$
13
0,
19
1)
#850000
1#
0$
14
03
1,
1;
09
18
1'
0)
1*
#855000
1$
13
0,
0;
19
0'
1)
#860000
1"
0#
0$
15
04
03
1,
0=
1:
08
1(
0*
1%
#865000
1$
13
0,
1=
1<
0:
1&
0(
0%
#870000
1#
0$
14
03
1,
09
0)
#875000
1$
13
0,
0<
1:
19
18
17
0&
1(
1)
1*
1+
#880000
0!
0"
0#
0$
06
05
04
03
1,
0:
08
09
0(
0*
0)
#885000
1$
13
0,
0=
1:
19
18
1(
1)
1*
1%
#890000
1#
0$
14
03
1,
1=
1;
0:
09
07
1'
0(
0)
0+
0%
#895000
1$
13
0,
0;
19
0'
1)
#900000
1"
0#
0$
15
04
03
1,
0=
1:
08
1(
0*
1%
#905000
1$
13
0,
1=
1<
0:
1&
0(
0%
#910000
1#
0$
14
03
1,
09
0)
#915000
1$
13
0,
0<
1:
19
18
17
0&
1(
1)
1*
1+
#920000
1!
0"
0#
0$
16
05
04
03
1,
0:
08
07
09
0(
0*
0+
0)
#925000
1$
13
0,
19
1)
#930000
1#
0$
14
03
1,
1;
09
18
1'
0)
1*
#935000
1$
13
0,
0;
19
0'
1)
#940000
1"
0#
0$
15
04
03
1,
0=
1:
08
1(
0*
1%
#945000
1$
13
0,
1=
1<
0:
1&
0(
0%
#950000
1#
0$
14
03
1,
09
0)
#955000
1$
13
0,
0<
1:
19
18
17
0&
1(
1)
1*
1+
#960000
0!
0"
0#
0$
06
05
04
03
1,
0:
08
09
0(
0*
0)
#965000
1$
13
0,
0=
1:
19
18
1(
1)
1*
1%
#970000
1#
0$
14
03
1,
1=
1;
0:
09
07
1'
0(
0)
0+
0%
#975000
1$
13
0,
0;
19
0'
1)
#980000
1"
0#
0$
15
04
03
1,
0=
1:
08
1(
0*
1%
#985000
1$
13
0,
1=
1<
0:
1&
0(
0%
#990000
1#
0$
14
03
1,
09
0)
#995000
1$
13
0,
0<
1:
19
18
17
0&
1(
1)
1*
1+
